…
```r
#carregando a biblioteca `tibble`
  library(tibble)
  
  #como data.frame (estrutura original)
    class(mtcars)
  #> [1] "data.frame"
  #como tibble
    mtcars_2 <- as_tibble(mtcars)
    class(mtcars_2)
  #> [1] "tbl_df"     "tbl"        "data.frame"
  #visualização como tibble:
    mtcars_2 
  #> # A tibble: 32 × 11
  #>      mpg   cyl  disp    hp  drat    wt  qsec    vs    am  gear  carb
  #>    <dbl> <dbl> <dbl> <dbl> <dbl> <dbl> <dbl> <dbl> <dbl> <dbl> <dbl>
  #>  1  21       6  160    110  3.9   2.62  16.5     0     1     4     4
  #>  2  21       6  160    110  3.9   2.88  17.0     0     1     4     4
  #>  3  22.8     4  108     93  3.85  2.32  18.6     1     1     4     1
  #>  4  21.4     6  258    110  3.08  3.22  19.4     1     0     3     1
  #>  5  18.7     8  360    175  3.15  3.44  17.0     0     0     3     2
  #>  6  18.1     6  225    105  2.76  3.46  20.2     1     0     3     1
  #>  7  14.3     8  360    245  3.21  3.57  15.8     0     0     3     4
  #>  8  24.4     4  147.    62  3.69  3.19  20       1     0     4     2
  #>  9  22.8     4  141.    95  3.92  3.15  22.9     1     0     4     2
  #> 10  19.2     6  168.   123  3.92  3.44  18.3     1     0     4     4
  #> # ℹ 22 more rows
```
…
```r
read_csv(readr_example("mtcars.csv"))
  #> Rows: 32 Columns: 11
  #> ── Column specification ────────────────────────────────────────────────────────
  #> Delimiter: ","
  #> dbl (11): mpg, cyl, disp, hp, drat, wt, qsec, vs, am, gear, carb
  #> 
  #> ℹ Use `spec()` to retrieve the full column specification for this data.
  #> ℹ Specify the column types or set `show_col_types = FALSE` to quiet this message.
  #> # A tibble: 32 × 11
  #>      mpg   cyl  disp    hp  drat    wt  qsec    vs    am  gear  carb
  #>    <dbl> <dbl> <dbl> <dbl> <dbl> <dbl> <dbl> <dbl> <dbl> <dbl> <dbl>
  #>  1  21       6  160    110  3.9   2.62  16.5     0     1     4     4
  #>  2  21       6  160    110  3.9   2.88  17.0     0     1     4     4
  #>  3  22.8     4  108     93  3.85  2.32  18.6     1     1     4     1
  #>  4  21.4     6  258    110  3.08  3.22  19.4     1     0     3     1
  #>  5  18.7     8  360    175  3.15  3.44  17.0     0     0     3     2
  #>  6  18.1     6  225    105  2.76  3.46  20.2     1     0     3     1
  #>  7  14.3     8  360    245  3.21  3.57  15.8     0     0     3     4
  #>  8  24.4     4  147.    62  3.69  3.19  20       1     0     4     2
  #>  9  22.8     4  141.    95  3.92  3.15  22.9     1     0     4     2
  #> 10  19.2     6  168.   123  3.92  3.44  18.3     1     0     4     4
  #> # ℹ 22 more rows
```
…
<img src="handout_files/figure-html/unnamed-chunk-128-2.png" style="display: block; margin: auto;" />

Por fim segue um exemplo de dados temporais em que, em conjunto com as
funções do `tidyr` e `dplyr`, remodelamos a base de dados `economics`
visando obter a visualização das variáveis `psavert` e `uempmed` desde
`1990`:


```r
economics
  #> # A tibble: 574 × 6
  #>    date         pce    pop psavert uempmed unemploy
  #>    <date>     <dbl>  <dbl>   <dbl>   <dbl>    <dbl>
  #>  1 1967-07-01  507. 198712    12.6     4.5     2944
  #>  2 1967-08-01  510. 198911    12.6     4.7     2945
  #>  3 1967-09-01  516. 199113    11.9     4.6     2958
  #>  4 1967-10-01  512. 199311    12.9     4.9     3143
  #>  5 1967-11-01  517. 199498    12.8     4.7     3066
  #>  6 1967-12-01  525. 199657    11.8     4.8     3018
  #>  7 1968-01-01  531. 199808    11.7     5.1     2878
  #>  8 1968-02-01  534. 199920    12.3     4.5     3001
  #>  9 1968-03-01  544. 200056    11.7     4.1     2877
  #> 10 1968-04-01  544  200208    12.3     4.6     2709
  #> # ℹ 564 more rows
```
…
