Análise Exploratória de Dados
…
Medidas de Dispersão (relativa): coeficiente de variação (CV)

Medidas de Forma: curtose e assimetria

Aqui vale comentar que apesar de não darmos enfoque nas medidas
relacionadas às variáveis qualitativas, muitas das
discussões apresentadas aqui podem ser estendidas para as
variáveis categóricas – neste caso tendo tabelas de
frequência como nossas maiores aliadas.

Voltando as medidas, para discutir melhor cada um dos grupos, vamos
considerar as colunas numéricas da base de comerciais do Super Bowl:

youtube %>% select(where(is.numeric)) 
## # A tibble: 247 × 7
##     year view_count like_count dislike_count favorite_count comment_count
##    <dbl>      <dbl>      <dbl>         <dbl>          <dbl>         <dbl>
##  1  2018     173929       1233            38              0            NA
##  2  2020      47752        485            14              0            14
##  3  2006     142310        129            15              0             9
##  4  2018        198          2             0              0             0
##  5  2003      13741         20             3              0             2
##  6  2020      23636        115            11              0            13
##  7  2020     304254       1470           384              0           227
##  8  2020      17892         78             6              0             6
##  9  2020      38385        342             7              0            30
## 10  2020        782          7             0              0             0
## # ℹ 237 more rows
## # ℹ 1 more variable: category_id <dbl>
…
