Distribuições de Probabilidade Teóricas e Empiricas: a base de uma análise de dados
…
#tamanho das amostras
n <- 1000

dados <- tibble(
    var_bernoulli = rbernoulli(n, p = 0.5),
    var_binomial = rbinom(n, size = 5, p = 0.25),
    var_poisson = rpois(n, lambda = 3),
    var_exp = rexp(n, rate = 3),
    var_uniforme = runif(n, min = 0 , max = 10),
    var_normal = rnorm(n, mean = 40, sd = 10)
)

dados

## # A tibble: 1,000 x 6
##    var_bernoulli var_binomial var_poisson var_exp var_uniforme var_normal
##    <lgl>                <int>       <int>   <dbl>        <dbl>      <dbl>
##  1 FALSE                    1           2   0.395         5.66       51.8
##  2 FALSE                    2           4   0.908         7.78       28.5
##  3 TRUE                     2           2   0.584         8.09       38.4
##  4 FALSE                    1           0   0.569         5.54       38.7
##  5 FALSE                    1           2   0.175         2.88       47.9
##  6 TRUE                     2           2   0.313         6.82       50.7
##  7 TRUE                     0           2   0.116         9.98       38.6
##  8 TRUE                     2           4   0.179         5.68       54.4
##  9 TRUE                     1           3   0.236         6.97       41.4
## 10 FALSE                    1           3   0.309         5.42       19.9
## # ... with 990 more rows
E se as variáveis fossem…

dadosEx <- dados %>% 
    rename(sex_fem = 1,
           process_n = 2,
           firstYear_nProj = 3,
           firstProj_timing = 4,
           kmFromRes = 5,
           age =6
           ) %>% 
    mutate(firstProj_timing = round(firstProj_timing*365,0) )

dadosEx

## # A tibble: 1,000 x 6
##    sex_fem process_n firstYear_nProj firstProj_timing kmFromRes   age
##    <lgl>       <int>           <int>            <dbl>     <dbl> <dbl>
##  1 FALSE           1               2              144      5.66  51.8
##  2 FALSE           2               4              331      7.78  28.5
##  3 TRUE            2               2              213      8.09  38.4
##  4 FALSE           1               0              208      5.54  38.7
##  5 FALSE           1               2               64      2.88  47.9
##  6 TRUE            2               2              114      6.82  50.7
##  7 TRUE            0               2               42      9.98  38.6
##  8 TRUE            2               4               65      5.68  54.4
##  9 TRUE            1               3               86      6.97  41.4
## 10 FALSE           1               3              113      5.42  19.9
## # ... with 990 more rows
…
